Tools for Analyzing Lactate Thresholds • lactater
…
#> $data
#> # A tibble: 8 × 3
#>   intensity lactate heart_rate
#>       <int>   <dbl>      <int>
#> 1        25    0.93         96
#> 2        50    0.98        114
#> 3        75    1.23        134
#> 4       100    1.88        154
#> 5       125    2.8         170
#> 6       150    4.21        182
#> 7       175    6.66        193
#> 8       191    8.64        198
#> 
#> $lactate_curve
#> # A tibble: 1,411 × 2
#>    intensity lactate
#>        <dbl>   <dbl>
#>  1      50     0.957
#>  2      50.1   0.959
#>  3      50.2   0.960
#>  4      50.3   0.961
#>  5      50.4   0.963
#>  6      50.5   0.964
#>  7      50.6   0.965
#>  8      50.7   0.966
#>  9      50.8   0.968
#> 10      50.9   0.969
#> # ℹ 1,401 more rows
#> 
#> $heart_rate_response
#> # A tibble: 1,411 × 2
#>    intensity heart_rate
#>        <dbl>      <dbl>
#>  1      50         120.
#>  2      50.1       120.
#>  3      50.2       120.
#>  4      50.3       120.
#>  5      50.4       120.
#>  6      50.5       120.
#>  7      50.6       120.
#>  8      50.7       120.
#>  9      50.8       120.
#> 10      50.9       120.
#> # ℹ 1,401 more rows
…
